Read Subtitle Files • srt
…
These subtitle files are parsed as data frames with separate columns.

(toy_story <- read_srt(path = srt, collapse = " "))
#> # A tibble: 1,398 x 4
#>        n start   end subtitle                                        
#>    <int> <dbl> <dbl> <chr>                                           
#>  1     1  58.6  61.6 BOY: All right, everyone! This... is a stick-up!
#>  2     2  61.7  63.4 Don't anybody move!                             
#>  3     3  64.4  66.5 Now, empty that safe!                           
#>  4     4  68.3  71.6 Ooh-hoo-hoo! Money, money, money! (KISSING)     
#>  5     5  71.7  74.0 Stop it! Stop it, you mean, old potato!         
#>  6     6  74.1  77.2 Quiet, Bo Peep, or your sheep get run over!     
#>  7     7  77.3  79.3 Help! Baa! Help us!                             
#>  8     8  79.4  83.0 Oh, no, not my sheep! Somebody do something!    
#>  9     9  89.3  92.4 VOICE BOX: Reach for the sky!                   
#> 10    10  92.5  94.7 Oh, no! Sheriff Woody!                          
#> # … with 1,388 more rows

This makes it easy to perform various text analysis on the subtitles.

toy_story %>% 
  unnest_tokens(word, subtitle) %>% 
  count(word, sort = TRUE) %>% 
  anti_join(stop_words)
#> # A tibble: 1,314 x 2
#>    word      n
#>    <chr> <int>
#>  1 buzz    122
#>  2 woody    72
#>  3 hey      63
#>  4 whoa     37
#>  5 andy     35
#>  6 ha       35
#>  7 mom      35
#>  8 gasps    31
#>  9 sid      30
#> 10 toy      30
#> # … with 1,304 more rows
…
