…
``` r
read_srt(path = ex, collapse = " ")
#> # A tibble: 1,398 x 4
#>        n start   end text                                            
#>    <int> <dbl> <dbl> <fct>                                           
#>  1     1  58.6  61.6 BOY: All right, everyone! This... is a stick-up!
#>  2     2  61.7  63.4 Don't anybody move!                             
#>  3     3  64.4  66.5 Now, empty that safe!                           
#>  4     4  68.3  71.6 Ooh-hoo-hoo! Money, money, money! (KISSING)     
#>  5     5  71.7  74.0 Stop it! Stop it, you mean, old potato!         
#>  6     6  74.1  77.2 Quiet, Bo Peep, or your sheep get run over!     
#>  7     7  77.3  79.3 Help! Baa! Help us!                             
#>  8     8  79.4  83.0 Oh, no, not my sheep! Somebody do something!    
#>  9     9  89.3  92.4 VOICE BOX: Reach for the sky!                   
#> 10    10  92.5  94.7 Oh, no! Sheriff Woody!                          
#> # … with 1,388 more rows
```
…
